1.jenkins ip
192.168.100.9:8080

jenkins software=etc/syconfig it will store

nexus
________________________________
copy nexus tar link and paste in linux wget link
http://download.sonatype.com/nexus/3/nexus-3.10.0-04-unix.tar.gz (nexus url)

proxy : in proxy remote storage give these because it will download from remote jars ( https://repo.maven.apache.org/maven2/)


192.168.100.11:8081
./nexus start(start service)

cd ./m2 (setting.xml)
_____________________________________
 <servers>
  <server>
      <id>my_release</id>
      <username>admin</username>
      <password>admin123</password>
    </server>
    <server>
      <id>my_snapshot</id>
      <username>admin</username>
      <password>admin123</password>
    </server>
  </servers>
____________________________
w3c validator (for validating the tags)

  <mirrors>
    <mirror>
      <id>my_proxy</id>
      <mirrorOf>*</mirrorOf>


pom.xml
__________________________________

 <distributionManagement>
        <repository>
            <id>my_release</id>
            <name>my_release</name>
            <url>http://192.168.100.11:8081/repository/my_release/</url>
        </repository>
        <snapshotRepository>
            <id>my_snapshot</id>
            <name>my_snapshot</name>
            <url>http://192.168.100.11:8081/repository/my_snapshot/</url>
        </snapshotRepository>
    </distributionManagement>
____________________________________________________________________
